archives/recording/right_1_wrist_flexion/TEK00002.CSV

Model,TBS1052C
Firmware Version,v2015-08-04-prequal4ch70_v1.3

Point Format,Y
Horizontal Units,S
Horizontal Scale,0.1
Sample Interval,8e-05
Filter Frequency,2e+08
Record Length,20000
Gating,0.0% to 100.0%
Probe Attenuation,10
Vertical Units,V
Vertical Offset,0
Vertical Scale,0.5
Label,
TIME,CH1
-8.0000e-01,2.61
-7.9992e-01,2.57
-7.9984e-01,2.59
-7.9976e-01,2.61
-7.9968e-01,2.57
-7.9960e-01,2.61
-7.9952e-01,2.59
-7.9944e-01,2.55
-7.9936e-01,2.55
-7.9928e-01,2.59
-7.9920e-01,2.55
-7.9912e-01,2.57
-7.9904e-01,2.61
-7.9896e-01,2.57
-7.9888e-01,2.61
-7.9880e-01,2.63
-7.9872e-01,2.61
-7.9864e-01,2.65
-7.9856e-01,2.61
-7.9848e-01,2.55
-7.9840e-01,2.63
-7.9832e-01,2.63
-7.9824e-01,2.55
-7.9816e-01,2.61
-7.9808e-01,2.57
-7.9800e-01,2.57
-7.9792e-01,2.61
-7.9784e-01,2.53
-7.9776e-01,2.55
-7.9768e-01,2.59
-7.9760e-01,2.55
-7.9752e-01,2.53
-7.9744e-01,2.57
-7.9736e-01,2.55
-7.9728e-01,2.53
-7.9720e-01,2.57
-7.9712e-01,2.55
-7.9704e-01,2.49
-7.9696e-01,2.53
-7.9688e-01,2.49
-7.9680e-01,2.49
-7.9672e-01,2.55
-7.9664e-01,2.49
-7.9656e-01,2.45
-7.9648e-01,2.51
-7.9640e-01,2.51
-7.9632e-01,2.47
-7.9624e-01,2.51
-7.9616e-01,2.55
-7.9608e-01,2.51
-7.9600e-01,2.53
-7.9592e-01,2.55
-7.9584e-01,2.53
-7.9576e-01,2.55
-7.9568e-01,2.53
-7.9560e-01,2.47
-7.9552e-01,2.53
-7.9544e-01,2.55
-7.9536e-01,2.49
-7.9528e-01,2.49
-7.9520e-01,2.49
-7.9512e-01,2.45
-7.9504e-01,2.51
-7.9496e-01,2.45
-7.9488e-01,2.47
-7.9480e-01,2.51
-7.9472e-01,2.53
-7.9464e-01,2.51
-7.9456e-01,2.53
-7.9448e-01,2.57
-7.9440e-01,2.53
-7.9432e-01,2.55
-7.9424e-01,2.55
-7.9416e-01,2.47
-7.9408e-01,2.53
-7.9400e-01,2.51
-7.9392e-01,2.51
-7.9384e-01,2.59
-7.9376e-01,2.55
-7.9368e-01,2.53
-7.9360e-01,2.57
-7.9352e-01,2.57
-7.9344e-01,2.51
-7.9336e-01,2.57
-7.9328e-01,2.59
-7.9320e-01,2.57
-7.9312e-01,2.59
-7.9304e-01,2.59
-7.9296e-01,2.57
-7.9288e-01,2.59
-7.9280e-01,2.59
-7.9272e-01,2.51
-7.9264e-01,2.59
-7.9256e-01,2.59
-7.9248e-01,2.55
-7.9240e-01,2.59
-7.9232e-01,2.59
-7.9224e-01,2.53
-7.9216e-01,2.59
-7.9208e-01,2.55
-7.9200e-01,2.55
-7.9192e-01,2.61
-7.9184e-01,2.61
-7.9176e-01,2.61
-7.9168e-01,2.65
-7.9160e-01,2.67
-7.9152e-01,2.65
-7.9144e-01,2.71
-7.9136e-01,2.73
-7.9128e-01,2.67
-7.9120e-01,2.77
-7.9112e-01,2.75
-7.9104e-01,2.75
-7.9096e-01,2.85
-7.9088e-01,2.83
-7.9080e-01,2.83
-7.9072e-01,2.87
-7.9064e-01,2.89
-7.9056e-01,2.83
-7.9048e-01,2.91
-7.9040e-01,2.93
-7.9032e-01,2.91
-7.9024e-01,2.97
-7.9016e-01,2.97
-7.9008e-01,2.97
-7.9000e-01,2.99
-7.8992e-01,2.99
-7.8984e-01,2.91
-7.8976e-01,3.01
-7.8968e-01,2.99
-7.8960e-01,2.95
-7.8952e-01,3.03
-7.8944e-01,3.01
-7.8936e-01,2.97
-7.8928e-01,3.03
-7.8920e-01,3.03
-7.8912e-01,3.03
-7.8904e-01,3.09
-7.8896e-01,3.05
-7.8888e-01,3.03
-7.8880e-01,3.09
-7.8872e-01,3.11
-7.8864e-01,3.05
-7.8856e-01,3.11
-7.8848e-01,3.11
-7.8840e-01,3.05
-7.8832e-01,3.11
-7.8824e-01,3.11
-7.8816e-01,3.09
-7.8808e-01,3.17
-7.8800e-01,3.15
-7.8792e-01,3.13
-7.8784e-01,3.13
-7.8776e-01,3.19
-7.8768e-01,3.15
-7.8760e-01,3.15
-7.8752e-01,3.23
-7.8744e-01,3.19
-7.8736e-01,3.17
-7.8728e-01,3.23
-7.8720e-01,3.19
-7.8712e-01,3.21
-7.8704e-01,3.25
-7.8696e-01,3.19
-7.8688e-01,3.21
-7.8680e-01,3.25
-7.8672e-01,3.23
-7.8664e-01,3.21
-7.8656e-01,3.23
-7.8648e-01,3.21
-7.8640e-01,3.19
-7.8632e-01,3.21
-7.8624e-01,3.19
-7.8616e-01,3.19
-7.8608e-01,3.27
-7.8600e-01,3.21
-7.8592e-01,3.25
-7.8584e-01,3.33
-7.8576e-01,3.29
-7.8568e-01,3.29
-7.8560e-01,3.37
-7.8552e-01,3.33
-7.8544e-01,3.37
-7.8536e-01,3.39
-7.8528e-01,3.39
-7.8520e-01,3.43
-7.8512e-01,3.45
-7.8504e-01,3.41
-7.8496e-01,3.41
-7.8488e-01,3.45
-7.8480e-01,3.41
-7.8472e-01,3.41
-7.8464e-01,3.47
-7.8456e-01,3.43
-7.8448e-01,3.43
-7.8440e-01,3.47
-7.8432e-01,3.43
-7.8424e-01,3.45
-7.8416e-01,3.45
-7.8408e-01,3.37
-7.8400e-01,3.43
-7.8392e-01,3.41
-7.8384e-01,3.35
-7.8376e-01,3.41
-7.8368e-01,3.37
-7.8360e-01,3.35
-7.8352e-01,3.39
-7.8344e-01,3.35
-7.8336e-01,3.37
-7.8328e-01,3.39
-7.8320e-01,3.31
-7.8312e-01,3.35
-7.8304e-01,3.37
-7.8296e-01,3.31
-7.8288e-01,3.31
-7.8280e-01,3.31
-7.8272e-01,3.25
-7.8264e-01,3.29
-7.8256e-01,3.23
-7.8248e-01,3.23
-7.8240e-01,3.27
-7.8232e-01,3.21
-7.8224e-01,3.21
-7.8216e-01,3.25
-7.8208e-01,3.21
-7.8200e-01,3.17
-7.8192e-01,3.21
-7.8184e-01,3.17
-7.8176e-01,3.13
-7.8168e-01,3.13
-7.8160e-01,3.11
-7.8152e-01,3.13
-7.8144e-01,3.13
-7.8136e-01,3.09
-7.8128e-01,3.11
-7.8120e-01,3.13
-7.8112e-01,3.05
-7.8104e-01,3.07
-7.8096e-01,3.09
-7.8088e-01,3.03
-7.8080e-01,3.07
-7.8072e-01,3.05
-7.8064e-01,2.99
-7.8056e-01,3.05
-7.8048e-01,2.99
-7.8040e-01,2.97
-7.8032e-01,3.03
-7.8024e-01,2.97
-7.8016e-01,2.95
-7.8008e-01,3.01
-7.8000e-01,2.95
-7.7992e-01,2.97
-7.7984e-01,2.95
-7.7976e-01,2.91
-7.7968e-01,2.95
-7.7960e-01,2.91
-7.7952e-01,2.87
-7.7944e-01,2.91
-7.7936e-01,2.89
-7.7928e-01,2.83
-7.7920e-01,2.87
-7.7912e-01,2.85
-7.7904e-01,2.87
-7.7896e-01,2.87
-7.7888e-01,2.83
-7.7880e-01,2.85
-7.7872e-01,2.83
-7.7864e-01,2.79
-7.7856e-01,2.79
-7.7848e-01,2.81
-7.7840e-01,2.75
-7.7832e-01,2.79
-7.7824e-01,2.79
-7.7816e-01,2.79
-7.7808e-01,2.81
-7.7800e-01,2.81
-7.7792e-01,2.79
-7.7784e-01,2.81
-7.7776e-01,2.77
-7.7768e-01,2.77
-7.7760e-01,2.81
-7.7752e-01,2.75
-7.7744e-01,2.79
-7.7736e-01,2.81
-7.7728e-01,2.79
-7.7720e-01,2.85
-7.7712e-01,2.81
-7.7704e-01,2.81
-7.7696e-01,2.83
-7.7688e-01,2.77
-7.7680e-01,2.77
-7.7672e-01,2.81
-7.7664e-01,2.75
-7.7656e-01,2.77
-7.7648e-01,2.81
-7.7640e-01,2.77
-7.7632e-01,2.79
-7.7624e-01,2.79
-7.7616e-01,2.75
-7.7608e-01,2.79
-7.7600e-01,2.77
-7.7592e-01,2.69
-7.7584e-01,2.77
-7.7576e-01,2.75
-7.7568e-01,2.71
-7.7560e-01,2.77
-7.7552e-01,2.73
-7.7544e-01,2.73
-7.7536e-01,2.77
-7.7528e-01,2.71
-7.7520e-01,2.75
-7.7512e-01,2.77
-7.7504e-01,2.69
-7.7496e-01,2.73
-7.7488e-01,2.77
-7.7480e-01,2.71
-7.7472e-01,2.73
-7.7464e-01,2.73
-7.7456e-01,2.69
-7.7448e-01,2.71
-7.7440e-01,2.69
-7.7432e-01,2.69
-7.7424e-01,2.71
-7.7416e-01,2.73
-7.7408e-01,2.69
-7.7400e-01,2.73
-7.7392e-01,2.75
-7.7384e-01,2.69
-7.7376e-01,2.75
-7.7368e-01,2.73
-7.7360e-01,2.71
-7.7352e-01,2.71
-7.7344e-01,2.69
-7.7336e-01,2.71
-7.7328e-01,2.77
-7.7320e-01,2.71
-7.7312e-01,2.75
-7.7304e-01,2.81
-7.7296e-01,2.75
-7.7288e-01,2.79
-7.7280e-01,2.81
-7.7272e-01,2.75
-7.7264e-01,2.79
-7.7256e-01,2.77
-7.7248e-01,2.77
-7.7240e-01,2.83
-7.7232e-01,2.79
-7.7224e-01,2.81
-7.7216e-01,2.85
-7.7208e-01,2.79
-7.7200e-01,2.83
-7.7192e-01,2.85
-7.7184e-01,2.81
-7.7176e-01,2.85
-7.7168e-01,2.83
-7.7160e-01,2.81
-7.7152e-01,2.87
-7.7144e-01,2.83
-7.7136e-01,2.81
-7.7128e-01,2.87
-7.7120e-01,2.85
-7.7112e-01,2.83
-7.7104e-01,2.89
-7.7096e-01,2.85
-7.7088e-01,2.87
-7.7080e-01,2.87
-7.7072e-01,2.85
-7.7064e-01,2.87
-7.7056e-01,2.87
-7.7048e-01,2.85
-7.7040e-01,2.83
-7.7032e-01,2.91
-7.7024e-01,2.89
-7.7016e-01,2.89
-7.7008e-01,2.97
-7.7000e-01,2.93
-7.6992e-01,2.97
-7.6984e-01,3.05
-7.6976e-01,3.03
-7.6968e-01,3.09
-7.6960e-01,3.11
-7.6952e-01,3.07
-7.6944e-01,3.15
-7.6936e-01,3.19
-7.6928e-01,3.19
-7.6920e-01,3.19
-7.6912e-01,3.25
-7.6904e-01,3.23
-7.6896e-01,3.21
-7.6888e-01,3.25
-7.6880e-01,3.23
-7.6872e-01,3.27
-7.6864e-01,3.31
-7.6856e-01,3.29
-7.6848e-01,3.33
-7.6840e-01,3.37
-7.6832e-01,3.31
-7.6824e-01,3.37
-7.6816e-01,3.35
-7.6808e-01,3.33
-7.6800e-01,3.33
-7.6792e-01,3.31
-7.6784e-01,3.29
-7.6776e-01,3.37
-7.6768e-01,3.35
-7.6760e-01,3.35
-7.6752e-01,3.39
-7.6744e-01,3.37
-7.6736e-01,3.39
-7.6728e-01,3.45
-7.6720e-01,3.39
-7.6712e-01,3.43
-7.6704e-01,3.43
-7.6696e-01,3.41
-7.6688e-01,3.43
-7.6680e-01,3.43
-7.6672e-01,3.39
-7.6664e-01,3.39
-7.6656e-01,3.43
-7.6648e-01,3.39
-7.6640e-01,3.39
-7.6632e-01,3.39
-7.6624e-01,3.37
-7.6616e-01,3.41
-7.6608e-01,3.39
-7.6600e-01,3.37
-7.6592e-01,3.39
-7.6584e-01,3.39
-7.6576e-01,3.35
-7.6568e-01,3.41
-7.6560e-01,3.37
-7.6552e-01,3.31
-7.6544e-01,3.37
-7.6536e-01,3.31
-7.6528e-01,3.33
-7.6520e-01,3.37
-7.6512e-01,3.33
-7.6504e-01,3.35
-7.6496e-01,3.35
-7.6488e-01,3.29
-7.6480e-01,3.33
-7.6472e-01,3.35
-7.6464e-01,3.27
-7.6456e-01,3.31
-7.6448e-01,3.33
-7.6440e-01,3.27
-7.6432e-01,3.25
-7.6424e-01,3.27
-7.6416e-01,3.23
-7.6408e-01,3.29
-7.6400e-01,3.27
-7.6392e-01,3.21
-7.6384e-01,3.25
-7.6376e-01,3.27
-7.6368e-01,3.21
-7.6360e-01,3.23
-7.6352e-01,3.25
-7.6344e-01,3.17
-7.6336e-01,3.19
-7.6328e-01,3.17
-7.6320e-01,3.13
-7.6312e-01,3.21
-7.6304e-01,3.11
-7.6296e-01,3.11
-7.6288e-01,3.17
-7.6280e-01,3.11
-7.6272e-01,3.09
-7.6264e-01,3.13
-7.6256e-01,3.07
-7.6248e-01,3.11
-7.6240e-01,3.09
-7.6232e-01,3.03
-7.6224e-01,3.09
-7.6216e-01,3.05
-7.6208e-01,3.01
-7.6200e-01,3.03
-7.6192e-01,3.03
-7.6184e-01,2.97
-7.6176e-01,2.99
-7.6168e-01,2.99
-7.6160e-01,2.97
-7.6152e-01,2.99
-7.6144e-01,2.95
-7.6136e-01,2.95
-7.6128e-01,2.95
-7.6120e-01,2.91
-7.6112e-01,2.87
-7.6104e-01,2.89
-7.6096e-01,2.85
-7.6088e-01,2.81
-7.6080e-01,2.85
-7.6072e-01,2.81
-7.6064e-01,2.79
-7.6056e-01,2.81
-7.6048e-01,2.75
-7.6040e-01,2.77
-7.6032e-01,2.75
-7.6024e-01,2.65
-7.6016e-01,2.73
-7.6008e-01,2.71
-7.6000e-01,2.63
-7.5992e-01,2.65
-7.5984e-01,2.63
-7.5976e-01,2.57
-7.5968e-01,2.59
-7.5960e-01,2.55
-7.5952e-01,2.53
-7.5944e-01,2.55
-7.5936e-01,2.45
-7.5928e-01,2.49
-7.5920e-01,2.49
-7.5912e-01,2.41
-7.5904e-01,2.45
-7.5896e-01,2.43
-7.5888e-01,2.37
-7.5880e-01,2.41
-7.5872e-01,2.37
-7.5864e-01,2.35
-7.5856e-01,2.39
-7.5848e-01,2.33
-7.5840e-01,2.31
-7.5832e-01,2.35
-7.5824e-01,2.33
-7.5816e-01,2.29
-7.5808e-01,2.31
-7.5800e-01,2.27
-7.5792e-01,2.25
-7.5784e-01,2.27
-7.5776e-01,2.25
-7.5768e-01,2.25
-7.5760e-01,2.29
-7.5752e-01,2.23
-7.5744e-01,2.25
-7.5736e-01,2.29
-7.5728e-01,2.23
-7.5720e-01,2.27
-7.5712e-01,2.27
-7.5704e-01,2.21
-7.5696e-01,2.25
-7.5688e-01,2.23
-7.5680e-01,2.21
-7.5672e-01,2.29
-7.5664e-01,2.23
-7.5656e-01,2.21
-7.5648e-01,2.27
-7.5640e-01,2.23
-7.5632e-01,2.21
-7.5624e-01,2.27
-7.5616e-01,2.23
-7.5608e-01,2.25
-7.5600e-01,2.27
-7.5592e-01,2.23
-7.5584e-01,2.27
-7.5576e-01,2.27
-7.5568e-01,2.23
-7.5560e-01,2.25
-7.5552e-01,2.29
-7.5544e-01,2.23
-7.5536e-01,2.23
-7.5528e-01,2.29
-7.5520e-01,2.23
-7.5512e-01,2.27
-7.5504e-01,2.29
-7.5496e-01,2.25
-7.5488e-01,2.27
-7.5480e-01,2.25
-7.5472e-01,2.19
-7.5464e-01,2.27
-7.5456e-01,2.23
-7.5448e-01,2.21
-7.5440e-01,2.29
-7.5432e-01,2.25
-7.5424e-01,2.25
-7.5416e-01,2.29
-7.5408e-01,2.25
-7.5400e-01,2.29
-7.5392e-01,2.31
-7.5384e-01,2.23
-7.5376e-01,2.31
-7.5368e-01,2.31
-7.5360e-01,2.27
-7.5352e-01,2.33
-7.5344e-01,2.31
-7.5336e-01,2.29
-7.5328e-01,2.37
-7.5320e-01,2.31
-7.5312e-01,2.37
-7.5304e-01,2.41
-7.5296e-01,2.33
-7.5288e-01,2.41
-7.5280e-01,2.43
-7.5272e-01,2.39
-7.5264e-01,2.45
-7.5256e-01,2.45
-7.5248e-01,2.41
-7.5240e-01,2.47
-7.5232e-01,2.45
-7.5224e-01,2.47
-7.5216e-01,2.51
-7.5208e-01,2.47
-7.5200e-01,2.51
-7.5192e-01,2.55
-7.5184e-01,2.53
-7.5176e-01,2.55
-7.5168e-01,2.57
-7.5160e-01,2.53
-7.5152e-01,2.55
-7.5144e-01,2.55
-7.5136e-01,2.57
-7.5128e-01,2.63
-7.5120e-01,2.63
-7.5112e-01,2.63
-7.5104e-01,2.69
-7.5096e-01,2.67
-7.5088e-01,2.67
-7.5080e-01,2.73
-7.5072e-01,2.69
-7.5064e-01,2.71
-7.5056e-01,2.71
-7.5048e-01,2.71
-7.5040e-01,2.75
-7.5032e-01,2.79
-7.5024e-01,2.75
-7.5016e-01,2.81
-7.5008e-01,2.87
-7.5000e-01,2.81
-7.4992e-01,2.85
-7.4984e-01,2.87
-7.4976e-01,2.83
-7.4968e-01,2.91
-7.4960e-01,2.87
-7.4952e-01,2.87
-7.4944e-01,2.95
-7.4936e-01,2.89
-7.4928e-01,2.91
-7.4920e-01,2.99
-7.4912e-01,2.97
-7.4904e-01,2.95
-7.4896e-01,3.03
-7.4888e-01,3.03
-7.4880e-01,3.05
-7.4872e-01,3.07
-7.4864e-01,3.07
-7.4856e-01,3.09
-7.4848e-01,3.11
-7.4840e-01,3.07
-7.4832e-01,3.09
-7.4824e-01,3.15
-7.4816e-01,3.11
-7.4808e-01,3.15
-7.4800e-01,3.19
-7.4792e-01,3.17
-7.4784e-01,3.21
-7.4776e-01,3.23
-7.4768e-01,3.21
-7.4760e-01,3.25
-7.4752e-01,3.23
-7.4744e-01,3.19
-7.4736e-01,3.29
-7.4728e-01,3.27
-7.4720e-01,3.23
-7.4712e-01,3.31
-7.4704e-01,3.29
-7.4696e-01,3.29
-7.4688e-01,3.35
-7.4680e-01,3.29
-7.4672e-01,3.33
-7.4664e-01,3.35
-7.4656e-01,3.27
-7.4648e-01,3.35
-7.4640e-01,3.35
-7.4632e-01,3.29
-7.4624e-01,3.35
-7.4616e-01,3.31
-7.4608e-01,3.29
-7.4600e-01,3.35
-7.4592e-01,3.29
-7.4584e-01,3.29
-7.4576e-01,3.33
-7.4568e-01,3.25
-7.4560e-01,3.27
-7.4552e-01,3.31
-7.4544e-01,3.25
-7.4536e-01,3.23
-7.4528e-01,3.27
-7.4520e-01,3.21
-7.4512e-01,3.19
-7.4504e-01,3.19
-7.4496e-01,3.15
-7.4488e-01,3.19
-7.4480e-01,3.17
-7.4472e-01,3.13
-7.4464e-01,3.17
-7.4456e-01,3.15
-7.4448e-01,3.09
-7.4440e-01,3.15
-7.4432e-01,3.09
-7.4424e-01,3.05
-7.4416e-01,3.07
-7.4408e-01,3.03
-7.4400e-01,3.03
-7.4392e-01,3.05
-7.4384e-01,2.99
-7.4376e-01,3.01
-7.4368e-01,3.03
-7.4360e-01,2.95
-7.4352e-01,2.99
-7.4344e-01,2.97
-7.4336e-01,2.89
-7.4328e-01,2.91
-7.4320e-01,2.87
-7.4312e-01,2.87
-7.4304e-01,2.91
-7.4296e-01,2.83
-7.4288e-01,2.85
-7.4280e-01,2.89
-7.4272e-01,2.83
-7.4264e-01,2.85
-7.4256e-01,2.85
-7.4248e-01,2.77
-7.4240e-01,2.81
-7.4232e-01,2.77
-7.4224e-01,2.73
-7.4216e-01,2.77
-7.4208e-01,2.71
-7.4200e-01,2.69
-7.4192e-01,2.75
-7.4184e-01,2.67
-7.4176e-01,2.65
-7.4168e-01,2.67
-7.4160e-01,2.59
-7.4152e-01,2.63
-7.4144e-01,2.59
-7.4136e-01,2.53
-7.4128e-01,2.59
-7.4120e-01,2.49
-7.4112e-01,2.47
-7.4104e-01,2.51
-7.4096e-01,2.45
-7.4088e-01,2.41
-7.4080e-01,2.45
-7.4072e-01,2.41
-7.4064e-01,2.43
-7.4056e-01,2.39
-7.4048e-01,2.35
-7.4040e-01,2.37
-7.4032e-01,2.33
-7.4024e-01,2.27
-7.4016e-01,2.29
-7.4008e-01,2.29
-7.4000e-01,2.23
-7.3992e-01,2.25
-7.3984e-01,2.25
-7.3976e-01,2.23
-7.3968e-01,2.25
-7.3960e-01,2.21
-7.3952e-01,2.21
-7.3944e-01,2.21
-7.3936e-01,2.15
-7.3928e-01,2.11
-7.3920e-01,2.17
-7.3912e-01,2.11
-7.3904e-01,2.11
-7.3896e-01,2.15
-7.3888e-01,2.11
-7.3880e-01,2.15
-7.3872e-01,2.15
-7.3864e-01,2.13
-7.3856e-01,2.17
-7.3848e-01,2.15
-7.3840e-01,2.07
-7.3832e-01,2.15
-7.3824e-01,2.15
-7.3816e-01,2.11
-7.3808e-01,2.17
-7.3800e-01,2.15
-7.3792e-01,2.15
-7.3784e-01,2.21
-7.3776e-01,2.17
-7.3768e-01,2.19
-7.3760e-01,2.23
-7.3752e-01,2.15
-7.3744e-01,2.21
-7.3736e-01,2.23
-7.3728e-01,2.19
-7.3720e-01,2.23
-7.3712e-01,2.21
-7.3704e-01,2.17
-7.3696e-01,2.21
-7.3688e-01,2.13
-7.3680e-01,2.19
-7.3672e-01,2.21
-7.3664e-01,2.15
-7.3656e-01,2.19
-7.3648e-01,2.21
-7.3640e-01,2.15
-7.3632e-01,2.17
-7.3624e-01,2.19
-7.3616e-01,2.13
-7.3608e-01,2.13
-7.3600e-01,2.15
-7.3592e-01,2.09
-7.3584e-01,2.13
-7.3576e-01,2.13
-7.3568e-01,2.09
-7.3560e-01,2.15
-7.3552e-01,2.17
-7.3544e-01,2.13
-7.3536e-01,2.17
-7.3528e-01,2.15
-7.3520e-01,2.11
-7.3512e-01,2.15
-7.3504e-01,2.13
-7.3496e-01,2.11
-7.3488e-01,2.17
-7.3480e-01,2.13
-7.3472e-01,2.09
-7.3464e-01,2.15
-7.3456e-01,2.13
-7.3448e-01,2.13
-7.3440e-01,2.17
-7.3432e-01,2.17
-7.3424e-01,2.19
-7.3416e-01,2.19
-7.3408e-01,2.19
-7.3400e-01,2.21
-7.3392e-01,2.19
-7.3384e-01,2.15
-7.3376e-01,2.15
-7.3368e-01,2.21
-7.3360e-01,2.19
-7.3352e-01,2.19
-7.3344e-01,2.25
-7.3336e-01,2.21
-7.3328e-01,2.23
-7.3320e-01,2.27
-7.3312e-01,2.25
-7.3304e-01,2.29
-7.3296e-01,2.29
-7.3288e-01,2.21
-7.3280e-01,2.29
-7.3272e-01,2.31
-7.3264e-01,2.27
-7.3256e-01,2.31
-7.3248e-01,2.29
-7.3240e-01,2.27
-7.3232e-01,2.33
-7.3224e-01,2.29
-7.3216e-01,2.33
-7.3208e-01,2.35
-7.3200e-01,2.31
-7.3192e-01,2.35
-7.3184e-01,2.37
-7.3176e-01,2.37
-7.3168e-01,2.37
-7.3160e-01,2.39
-7.3152e-01,2.39
-7.3144e-01,2.37
-7.3136e-01,2.39
-7.3128e-01,2.39
-7.3120e-01,2.43
-7.3112e-01,2.47
-7.3104e-01,2.43
-7.3096e-01,2.49
-7.3088e-01,2.53
-7.3080e-01,2.49
-7.3072e-01,2.53
-7.3064e-01,2.55
-7.3056e-01,2.49
-7.3048e-01,2.55
-7.3040e-01,2.53
-7.3032e-01,2.51
-7.3024e-01,2.61
-7.3016e-01,2.57
-7.3008e-01,2.57
-7.3000e-01,2.63
-7.2992e-01,2.59
-7.2984e-01,2.61
-7.2976e-01,2.63
-7.2968e-01,2.61
-7.2960e-01,2.65
-7.2952e-01,2.67
-7.2944e-01,2.63
-7.2936e-01,2.69
-7.2928e-01,2.67
-7.2920e-01,2.63
-7.2912e-01,2.69
-7.2904e-01,2.71
-7.2896e-01,2.67
-7.2888e-01,2.73
-7.2880e-01,2.75
-7.2872e-01,2.77
-7.2864e-01,2.81
-7.2856e-01,2.79
-7.2848e-01,2.81
-7.2840e-01,2.83
-7.2832e-01,2.79
-7.2824e-01,2.79
-7.2816e-01,2.85
-7.2808e-01,2.81
-7.2800e-01,2.83
-7.2792e-01,2.89
-7.2784e-01,2.87
-7.2776e-01,2.91
-7.2768e-01,2.93
-7.2760e-01,2.91
-7.2752e-01,2.95
-7.2744e-01,2.95
-7.2736e-01,2.89
-7.2728e-01,2.99
-7.2720e-01,2.99
-7.2712e-01,2.95
-7.2704e-01,3.03
-7.2696e-01,2.99
-7.2688e-01,2.99
-7.2680e-01,3.05
-7.2672e-01,2.99
-7.2664e-01,3.03
-7.2656e-01,3.07
-7.2648e-01,2.99
-7.2640e-01,3.03
-7.2632e-01,3.07
-7.2624e-01,3.03
-7.2616e-01,3.03
-7.2608e-01,3.05
-7.2600e-01,3.03
-7.2592e-01,3.01
-7.2584e-01,3.03
-7.2576e-01,2.99
-7.2568e-01,3.01
-7.2560e-01,3.05
-7.2552e-01,2.99
-7.2544e-01,3.01
-7.2536e-01,3.05
-7.2528e-01,2.97
-7.2520e-01,3.01
-7.2512e-01,3.03
-7.2504e-01,2.97
-7.2496e-01,3.01
-7.2488e-01,3.01
-7.2480e-01,2.97
-7.2472e-01,3.03
-7.2464e-01,2.99
-7.2456e-01,2.95
-7.2448e-01,2.97
-7.2440e-01,2.99
-7.2432e-01,2.93
-7.2424e-01,2.93
-7.2416e-01,2.99
-7.2408e-01,2.93
-7.2400e-01,2.93
-7.2392e-01,2.97
-7.2384e-01,2.91
-7.2376e-01,2.95
-7.2368e-01,2.93
-7.2360e-01,2.85
-7.2352e-01,2.91
-7.2344e-01,2.89
-7.2336e-01,2.83
-7.2328e-01,2.91
-7.2320e-01,2.87
-7.2312e-01,2.83
-7.2304e-01,2.87
-7.2296e-01,2.79
-7.2288e-01,2.81
-7.2280e-01,2.83
-7.2272e-01,2.79
-7.2264e-01,2.77
-7.2256e-01,2.81
-7.2248e-01,2.79
-7.2240e-01,2.75
-7.2232e-01,2.77
-7.2224e-01,2.73
-7.2216e-01,2.69
-7.2208e-01,2.71
-7.2200e-01,2.67
-7.2192e-01,2.67
-7.2184e-01,2.69
-7.2176e-01,2.63
-7.2168e-01,2.65
-7.2160e-01,2.69
-7.2152e-01,2.63
-7.2144e-01,2.61
-7.2136e-01,2.65
-7.2128e-01,2.57
-7.2120e-01,2.59
-7.2112e-01,2.57
-7.2104e-01,2.53
-7.2096e-01,2.57
-7.2088e-01,2.53
-7.2080e-01,2.49
-7.2072e-01,2.49
-7.2064e-01,2.49
-7.2056e-01,2.43
-7.2048e-01,2.45
-7.2040e-01,2.47
-7.2032e-01,2.43
-7.2024e-01,2.43
-7.2016e-01,2.39
-7.2008e-01,2.37
-7.2000e-01,2.39
-7.1992e-01,2.33
-7.1984e-01,2.27
-7.1976e-01,2.31
-7.1968e-01,2.27
-7.1960e-01,2.23
-7.1952e-01,2.29
-7.1944e-01,2.23
-7.1936e-01,2.21
-7.1928e-01,2.25
-7.1920e-01,2.19
-7.1912e-01,2.21
-7.1904e-01,2.21
-7.1896e-01,2.13
-7.1888e-01,2.15
-7.1880e-01,2.19
-7.1872e-01,2.13
-7.1864e-01,2.11
-7.1856e-01,2.13
-7.1848e-01,2.07
-7.1840e-01,2.07
-7.1832e-01,2.07
-7.1824e-01,2.03
-7.1816e-01,2.05
-7.1808e-01,2.07
-7.1800e-01,2.01
-7.1792e-01,2.03
-7.1784e-01,2.07
-7.1776e-01,1.99
-7.1768e-01,2.01
-7.1760e-01,2.01
-7.1752e-01,1.95
-7.1744e-01,1.99
-7.1736e-01,1.95
-7.1728e-01,1.93
-7.1720e-01,1.99
-7.1712e-01,1.93
-7.1704e-01,1.91
-7.1696e-01,1.97
-7.1688e-01,1.91
-7.1680e-01,1.89
-7.1672e-01,1.95
-7.1664e-01,1.87
-7.1656e-01,1.91
-7.1648e-01,1.91
-7.1640e-01,1.89
-7.1632e-01,1.93
-7.1624e-01,1.93
-7.1616e-01,1.89
-7.1608e-01,1.91
-7.1600e-01,1.97
-7.1592e-01,1.93
-7.1584e-01,1.95
-7.1576e-01,2.01
-7.1568e-01,1.97
-7.1560e-01,2.01
-7.1552e-01,2.05
-7.1544e-01,1.99
-7.1536e-01,2.07
-7.1528e-01,2.07
-7.1520e-01,2.01
-7.1512e-01,2.09
-7.1504e-01,2.09
-7.1496e-01,2.05
-7.1488e-01,2.13
-7.1480e-01,2.11
-7.1472e-01,2.09
-7.1464e-01,2.15
-7.1456e-01,2.11
-7.1448e-01,2.17
-7.1440e-01,2.19
-7.1432e-01,2.15
-7.1424e-01,2.21
-7.1416e-01,2.25
-7.1408e-01,2.21
-7.1400e-01,2.25
-7.1392e-01,2.27
-7.1384e-01,2.23
-7.1376e-01,2.29
-7.1368e-01,2.27
-7.1360e-01,2.29
-7.1352e-01,2.35
-7.1344e-01,2.33
-7.1336e-01,2.35
-7.1328e-01,2.41
-7.1320e-01,2.39
-7.1312e-01,2.41
-7.1304e-01,2.45
-7.1296e-01,2.43
-7.1288e-01,2.43
-7.1280e-01,2.43
-7.1272e-01,2.45
-7.1264e-01,2.49
-7.1256e-01,2.51
-7.1248e-01,2.49
-7.1240e-01,2.55
-7.1232e-01,2.57
-7.1224e-01,2.51
-7.1216e-01,2.57
-7.1208e-01,2.57
-7.1200e-01,2.53
-7.1192e-01,2.59
-7.1184e-01,2.57
-7.1176e-01,2.57
-7.1168e-01,2.63
-7.1160e-01,2.59
-7.1152e-01,2.61
-7.1144e-01,2.67
-7.1136e-01,2.63
-7.1128e-01,2.67
-7.1120e-01,2.71
-7.1112e-01,2.65
-7.1104e-01,2.71
-7.1096e-01,2.71
-7.1088e-01,2.69
-7.1080e-01,2.75
-7.1072e-01,2.73
-7.1064e-01,2.71
-7.1056e-01,2.77
-7.1048e-01,2.75
-7.1040e-01,2.71
-7.1032e-01,2.77
-7.1024e-01,2.75
-7.1016e-01,2.77
-7.1008e-01,2.79
-7.1000e-01,2.75
-7.0992e-01,2.81
-7.0984e-01,2.79
-7.0976e-01,2.77
-7.0968e-01,2.79
-7.0960e-01,2.79
-7.0952e-01,2.79
-7.0944e-01,2.83
-7.0936e-01,2.83
-7.0928e-01,2.83
-7.0920e-01,2.87
-7.0912e-01,2.87
-7.0904e-01,2.87
-7.0896e-01,2.89
-7.0888e-01,2.87
-7.0880e-01,2.83
-7.0872e-01,2.91
-7.0864e-01,2.85
-7.0856e-01,2.89
-7.0848e-01,2.93
-7.0840e-01,2.87
-7.0832e-01,2.93
-7.0824e-01,2.93
-7.0816e-01,2.93
-7.0808e-01,2.93
-7.0800e-01,2.87
-7.0792e-01,2.85
-7.0784e-01,2.93
-7.0776e-01,2.89
-7.0768e-01,2.95
-7.0760e-01,2.99
-7.0752e-01,2.95
-7.0744e-01,3.01
-7.0736e-01,3.01
