archives/recording/right_1_wrist_flexion/TEK00004.CSV

Model,TBS1052C
Firmware Version,v2015-08-04-prequal4ch70_v1.3

Point Format,Y
Horizontal Units,S
Horizontal Scale,0.2
Sample Interval,0.00016
Filter Frequency,2e+08
Record Length,20000
Gating,0.0% to 100.0%
Probe Attenuation,10
Vertical Units,V
Vertical Offset,0
Vertical Scale,0.5
Label,
TIME,CH1
-1.6000e+00,3.43
-1.5998e+00,3.47
-1.5997e+00,3.41
-1.5995e+00,3.35
-1.5994e+00,3.17
-1.5992e+00,2.97
-1.5990e+00,2.83
-1.5989e+00,2.59
-1.5987e+00,2.47
-1.5986e+00,2.33
-1.5984e+00,2.27
-1.5982e+00,2.31
-1.5981e+00,2.33
-1.5979e+00,2.35
-1.5978e+00,2.39
-1.5976e+00,2.33
-1.5974e+00,2.37
-1.5973e+00,2.37
-1.5971e+00,2.27
-1.5970e+00,2.21
-1.5968e+00,2.25
-1.5966e+00,2.19
-1.5965e+00,2.19
-1.5963e+00,2.17
-1.5962e+00,2.11
-1.5960e+00,2.07
-1.5958e+00,2.05
-1.5957e+00,1.87
-1.5955e+00,1.83
-1.5954e+00,1.77
-1.5952e+00,1.71
-1.5950e+00,1.73
-1.5949e+00,1.75
-1.5947e+00,1.71
-1.5946e+00,1.85
-1.5944e+00,1.93
-1.5942e+00,1.95
-1.5941e+00,2.07
-1.5939e+00,2.21
-1.5938e+00,2.27
-1.5936e+00,2.43
-1.5934e+00,2.47
-1.5933e+00,2.49
-1.5931e+00,2.55
-1.5930e+00,2.57
-1.5928e+00,2.51
-1.5926e+00,2.53
-1.5925e+00,2.49
-1.5923e+00,2.43
-1.5922e+00,2.43
-1.5920e+00,2.33
-1.5918e+00,2.23
-1.5917e+00,2.17
-1.5915e+00,2.07
-1.5914e+00,2.03
-1.5912e+00,2.01
-1.5910e+00,1.95
-1.5909e+00,1.95
-1.5907e+00,1.97
-1.5906e+00,1.95
-1.5904e+00,2.03
-1.5902e+00,2.11
-1.5901e+00,2.17
-1.5899e+00,2.29
-1.5898e+00,2.37
-1.5896e+00,2.37
-1.5894e+00,2.43
-1.5893e+00,2.45
-1.5891e+00,2.45
-1.5890e+00,2.51
-1.5888e+00,2.55
-1.5886e+00,2.55
-1.5885e+00,2.59
-1.5883e+00,2.63
-1.5882e+00,2.57
-1.5880e+00,2.57
-1.5878e+00,2.55
-1.5877e+00,2.53
-1.5875e+00,2.61
-1.5874e+00,2.59
-1.5872e+00,2.55
-1.5870e+00,2.61
-1.5869e+00,2.55
-1.5867e+00,2.53
-1.5866e+00,2.47
-1.5864e+00,2.35
-1.5862e+00,2.33
-1.5861e+00,2.35
-1.5859e+00,2.29
-1.5858e+00,2.29
-1.5856e+00,2.31
-1.5854e+00,2.31
-1.5853e+00,2.31
-1.5851e+00,2.33
-1.5850e+00,2.29
-1.5848e+00,2.31
-1.5846e+00,2.37
-1.5845e+00,2.35
-1.5843e+00,2.35
-1.5842e+00,2.39
-1.5840e+00,2.39
-1.5838e+00,2.43
-1.5837e+00,2.43
-1.5835e+00,2.39
-1.5834e+00,2.37
-1.5832e+00,2.43
-1.5830e+00,2.33
-1.5829e+00,2.29
-1.5827e+00,2.23
-1.5826e+00,2.13
-1.5824e+00,1.99
-1.5822e+00,1.91
-1.5821e+00,1.91
-1.5819e+00,1.91
-1.5818e+00,1.95
-1.5816e+00,2.01
-1.5814e+00,2.05
-1.5813e+00,2.07
-1.5811e+00,2.11
-1.5810e+00,2.11
-1.5808e+00,2.15
-1.5806e+00,2.23
-1.5805e+00,2.27
-1.5803e+00,2.27
-1.5802e+00,2.37
-1.5800e+00,2.37
-1.5798e+00,2.39
-1.5797e+00,2.41
-1.5795e+00,2.41
-1.5794e+00,2.37
-1.5792e+00,2.41
-1.5790e+00,2.33
-1.5789e+00,2.29
-1.5787e+00,2.29
-1.5786e+00,2.31
-1.5784e+00,2.23
-1.5782e+00,2.25
-1.5781e+00,2.21
-1.5779e+00,2.17
-1.5778e+00,2.17
-1.5776e+00,2.13
-1.5774e+00,2.01
-1.5773e+00,2.01
-1.5771e+00,1.99
-1.5770e+00,1.91
-1.5768e+00,1.91
-1.5766e+00,1.97
-1.5765e+00,1.95
-1.5763e+00,1.99
-1.5762e+00,2.05
-1.5760e+00,2.05
-1.5758e+00,2.07
-1.5757e+00,2.17
-1.5755e+00,2.13
-1.5754e+00,2.15
-1.5752e+00,2.23
-1.5750e+00,2.27
-1.5749e+00,2.29
-1.5747e+00,2.37
-1.5746e+00,2.39
-1.5744e+00,2.45
-1.5742e+00,2.55
-1.5741e+00,2.59
-1.5739e+00,2.59
-1.5738e+00,2.61
-1.5736e+00,2.53
-1.5734e+00,2.37
-1.5733e+00,2.25
-1.5731e+00,2.19
-1.5730e+00,2.13
-1.5728e+00,2.13
-1.5726e+00,2.17
-1.5725e+00,2.15
-1.5723e+00,2.23
-1.5722e+00,2.29
-1.5720e+00,2.29
-1.5718e+00,2.35
-1.5717e+00,2.37
-1.5715e+00,2.37
-1.5714e+00,2.43
-1.5712e+00,2.45
-1.5710e+00,2.47
-1.5709e+00,2.57
-1.5707e+00,2.63
-1.5706e+00,2.65
-1.5704e+00,2.71
-1.5702e+00,2.69
-1.5701e+00,2.67
-1.5699e+00,2.71
-1.5698e+00,2.61
-1.5696e+00,2.59
-1.5694e+00,2.55
-1.5693e+00,2.45
-1.5691e+00,2.37
-1.5690e+00,2.33
-1.5688e+00,2.21
-1.5686e+00,2.23
-1.5685e+00,2.21
-1.5683e+00,2.17
-1.5682e+00,2.23
-1.5680e+00,2.31
-1.5678e+00,2.37
-1.5677e+00,2.51
-1.5675e+00,2.55
-1.5674e+00,2.51
-1.5672e+00,2.55
-1.5670e+00,2.57
-1.5669e+00,2.49
-1.5667e+00,2.51
-1.5666e+00,2.53
-1.5664e+00,2.49
-1.5662e+00,2.51
-1.5661e+00,2.53
-1.5659e+00,2.45
-1.5658e+00,2.51
-1.5656e+00,2.53
-1.5654e+00,2.47
-1.5653e+00,2.47
-1.5651e+00,2.53
-1.5650e+00,2.51
-1.5648e+00,2.53
-1.5646e+00,2.55
-1.5645e+00,2.51
-1.5643e+00,2.53
-1.5642e+00,2.59
-1.5640e+00,2.55
-1.5638e+00,2.53
-1.5637e+00,2.55
-1.5635e+00,2.51
-1.5634e+00,2.41
-1.5632e+00,2.39
-1.5630e+00,2.33
-1.5629e+00,2.29
-1.5627e+00,2.31
-1.5626e+00,2.27
-1.5624e+00,2.21
-1.5622e+00,2.27
-1.5621e+00,2.25
-1.5619e+00,2.25
-1.5618e+00,2.29
-1.5616e+00,2.29
-1.5614e+00,2.29
-1.5613e+00,2.35
-1.5611e+00,2.31
-1.5610e+00,2.29
-1.5608e+00,2.33
-1.5606e+00,2.37
-1.5605e+00,2.35
-1.5603e+00,2.43
-1.5602e+00,2.41
-1.5600e+00,2.51
-1.5598e+00,2.55
-1.5597e+00,2.53
-1.5595e+00,2.57
-1.5594e+00,2.63
-1.5592e+00,2.57
-1.5590e+00,2.55
-1.5589e+00,2.51
-1.5587e+00,2.35
-1.5586e+00,2.29
-1.5584e+00,2.21
-1.5582e+00,2.01
-1.5581e+00,1.95
-1.5579e+00,1.89
-1.5578e+00,1.85
-1.5576e+00,1.83
-1.5574e+00,1.85
-1.5573e+00,1.77
-1.5571e+00,1.81
-1.5570e+00,1.81
-1.5568e+00,1.73
-1.5566e+00,1.71
-1.5565e+00,1.73
-1.5563e+00,1.67
-1.5562e+00,1.65
-1.5560e+00,1.63
-1.5558e+00,1.57
-1.5557e+00,1.61
-1.5555e+00,1.67
-1.5554e+00,1.61
-1.5552e+00,1.69
-1.5550e+00,1.73
-1.5549e+00,1.75
-1.5547e+00,1.73
-1.5546e+00,1.79
-1.5544e+00,1.75
-1.5542e+00,1.81
-1.5541e+00,1.77
-1.5539e+00,1.69
-1.5538e+00,1.69
-1.5536e+00,1.75
-1.5534e+00,1.71
-1.5533e+00,1.79
-1.5531e+00,1.81
-1.5530e+00,1.83
-1.5528e+00,1.89
-1.5526e+00,1.97
-1.5525e+00,1.99
-1.5523e+00,2.09
-1.5522e+00,2.15
-1.5520e+00,2.21
-1.5518e+00,2.33
-1.5517e+00,2.37
-1.5515e+00,2.33
-1.5514e+00,2.39
-1.5512e+00,2.33
-1.5510e+00,2.27
-1.5509e+00,2.21
-1.5507e+00,2.17
-1.5506e+00,2.13
-1.5504e+00,2.17
-1.5502e+00,2.15
-1.5501e+00,2.19
-1.5499e+00,2.25
-1.5498e+00,2.27
-1.5496e+00,2.37
-1.5494e+00,2.45
-1.5493e+00,2.49
-1.5491e+00,2.51
-1.5490e+00,2.55
-1.5488e+00,2.53
-1.5486e+00,2.53
-1.5485e+00,2.49
-1.5483e+00,2.43
-1.5482e+00,2.45
-1.5480e+00,2.45
-1.5478e+00,2.39
-1.5477e+00,2.47
-1.5475e+00,2.53
-1.5474e+00,2.59
-1.5472e+00,2.71
-1.5470e+00,2.73
-1.5469e+00,2.71
-1.5467e+00,2.77
-1.5466e+00,2.77
-1.5464e+00,2.73
-1.5462e+00,2.77
-1.5461e+00,2.79
-1.5459e+00,2.79
-1.5458e+00,2.89
-1.5456e+00,2.95
-1.5454e+00,2.95
-1.5453e+00,2.99
-1.5451e+00,3.01
-1.5450e+00,2.99
-1.5448e+00,2.99
-1.5446e+00,3.05
-1.5445e+00,2.99
-1.5443e+00,2.93
-1.5442e+00,2.97
-1.5440e+00,2.95
-1.5438e+00,2.89
-1.5437e+00,2.91
-1.5435e+00,2.87
-1.5434e+00,2.83
-1.5432e+00,2.81
-1.5430e+00,2.83
-1.5429e+00,2.75
-1.5427e+00,2.81
-1.5426e+00,2.87
-1.5424e+00,2.87
-1.5422e+00,2.95
-1.5421e+00,3.09
-1.5419e+00,3.17
-1.5418e+00,3.23
-1.5416e+00,3.25
-1.5414e+00,3.19
-1.5413e+00,3.11
-1.5411e+00,3.09
-1.5410e+00,3.09
-1.5408e+00,3.05
-1.5406e+00,3.05
-1.5405e+00,3.13
-1.5403e+00,3.25
-1.5402e+00,3.37
-1.5400e+00,3.55
-1.5398e+00,3.63
-1.5397e+00,3.65
-1.5395e+00,3.69
-1.5394e+00,3.63
-1.5392e+00,3.47
-1.5390e+00,3.35
-1.5389e+00,3.15
-1.5387e+00,2.95
-1.5386e+00,2.79
-1.5384e+00,2.57
-1.5382e+00,2.31
-1.5381e+00,2.15
-1.5379e+00,2.01
-1.5378e+00,1.91
-1.5376e+00,1.95
-1.5374e+00,2.03
-1.5373e+00,2.13
-1.5371e+00,2.35
-1.5370e+00,2.45
-1.5368e+00,2.51
-1.5366e+00,2.59
-1.5365e+00,2.63
-1.5363e+00,2.55
-1.5362e+00,2.53
-1.5360e+00,2.49
-1.5358e+00,2.39
-1.5357e+00,2.31
-1.5355e+00,2.25
-1.5354e+00,2.17
-1.5352e+00,2.17
-1.5350e+00,2.17
-1.5349e+00,2.09
-1.5347e+00,2.07
-1.5346e+00,2.09
-1.5344e+00,2.03
-1.5342e+00,2.05
-1.5341e+00,2.05
-1.5339e+00,1.99
-1.5338e+00,2.03
-1.5336e+00,2.11
-1.5334e+00,2.05
-1.5333e+00,2.05
-1.5331e+00,2.05
-1.5330e+00,1.97
-1.5328e+00,1.87
-1.5326e+00,1.85
-1.5325e+00,1.79
-1.5323e+00,1.83
-1.5322e+00,1.89
-1.5320e+00,1.85
-1.5318e+00,1.81
-1.5317e+00,1.81
-1.5315e+00,1.75
-1.5314e+00,1.71
-1.5312e+00,1.73
-1.5310e+00,1.73
-1.5309e+00,1.83
-1.5307e+00,1.97
-1.5306e+00,2.03
-1.5304e+00,2.15
-1.5302e+00,2.29
-1.5301e+00,2.37
-1.5299e+00,2.41
-1.5298e+00,2.47
-1.5296e+00,2.45
-1.5294e+00,2.49
-1.5293e+00,2.53
-1.5291e+00,2.47
-1.5290e+00,2.43
-1.5288e+00,2.45
-1.5286e+00,2.39
-1.5285e+00,2.35
-1.5283e+00,2.33
-1.5282e+00,2.27
-1.5280e+00,2.33
-1.5278e+00,2.37
-1.5277e+00,2.31
-1.5275e+00,2.39
-1.5274e+00,2.47
-1.5272e+00,2.47
-1.5270e+00,2.57
-1.5269e+00,2.65
-1.5267e+00,2.59
-1.5266e+00,2.65
-1.5264e+00,2.69
-1.5262e+00,2.65
-1.5261e+00,2.73
-1.5259e+00,2.81
-1.5258e+00,2.81
-1.5256e+00,2.87
-1.5254e+00,2.87
-1.5253e+00,2.95
-1.5251e+00,3.07
-1.5250e+00,3.11
-1.5248e+00,3.21
-1.5246e+00,3.23
-1.5245e+00,3.21
-1.5243e+00,3.15
-1.5242e+00,3.07
-1.5240e+00,3.09
-1.5238e+00,3.09
-1.5237e+00,3.01
-1.5235e+00,3.07
-1.5234e+00,3.07
-1.5232e+00,3.11
-1.5230e+00,3.17
-1.5229e+00,3.19
-1.5227e+00,3.27
-1.5226e+00,3.29
-1.5224e+00,3.27
-1.5222e+00,3.31
-1.5221e+00,3.31
-1.5219e+00,3.21
-1.5218e+00,3.19
-1.5216e+00,3.07
-1.5214e+00,3.01
-1.5213e+00,2.95
-1.5211e+00,2.87
-1.5210e+00,2.83
-1.5208e+00,2.87
-1.5206e+00,2.85
-1.5205e+00,2.87
-1.5203e+00,2.91
-1.5202e+00,2.87
-1.5200e+00,2.87
-1.5198e+00,2.95
-1.5197e+00,2.87
-1.5195e+00,2.87
-1.5194e+00,2.89
-1.5192e+00,2.87
-1.5190e+00,2.81
-1.5189e+00,2.81
-1.5187e+00,2.75
-1.5186e+00,2.75
-1.5184e+00,2.81
-1.5182e+00,2.77
-1.5181e+00,2.71
-1.5179e+00,2.77
-1.5178e+00,2.71
-1.5176e+00,2.67
-1.5174e+00,2.65
-1.5173e+00,2.59
-1.5171e+00,2.55
-1.5170e+00,2.59
-1.5168e+00,2.49
-1.5166e+00,2.49
-1.5165e+00,2.53
-1.5163e+00,2.49
-1.5162e+00,2.45
-1.5160e+00,2.47
-1.5158e+00,2.41
-1.5157e+00,2.43
-1.5155e+00,2.47
-1.5154e+00,2.43
-1.5152e+00,2.39
-1.5150e+00,2.45
-1.5149e+00,2.41
-1.5147e+00,2.43
-1.5146e+00,2.43
-1.5144e+00,2.37
-1.5142e+00,2.39
-1.5141e+00,2.43
-1.5139e+00,2.35
-1.5138e+00,2.39
-1.5136e+00,2.37
-1.5134e+00,2.33
-1.5133e+00,2.37
-1.5131e+00,2.35
-1.5130e+00,2.29
-1.5128e+00,2.33
-1.5126e+00,2.29
-1.5125e+00,2.29
-1.5123e+00,2.29
-1.5122e+00,2.29
-1.5120e+00,2.29
-1.5118e+00,2.33
-1.5117e+00,2.31
-1.5115e+00,2.41
-1.5114e+00,2.43
-1.5112e+00,2.45
-1.5110e+00,2.53
-1.5109e+00,2.53
-1.5107e+00,2.53
-1.5106e+00,2.55
-1.5104e+00,2.57
-1.5102e+00,2.55
-1.5101e+00,2.53
-1.5099e+00,2.53
-1.5098e+00,2.49
-1.5096e+00,2.45
-1.5094e+00,2.49
-1.5093e+00,2.51
-1.5091e+00,2.51
-1.5090e+00,2.59
-1.5088e+00,2.61
-1.5086e+00,2.57
-1.5085e+00,2.61
-1.5083e+00,2.63
-1.5082e+00,2.53
-1.5080e+00,2.49
-1.5078e+00,2.47
-1.5077e+00,2.41
-1.5075e+00,2.31
-1.5074e+00,2.29
-1.5072e+00,2.31
-1.5070e+00,2.33
-1.5069e+00,2.45
-1.5067e+00,2.59
-1.5066e+00,2.69
-1.5064e+00,2.85
-1.5062e+00,3.03
-1.5061e+00,3.11
-1.5059e+00,3.13
-1.5058e+00,3.15
-1.5056e+00,3.09
-1.5054e+00,2.97
-1.5053e+00,3.01
-1.5051e+00,3.01
-1.5050e+00,2.95
-1.5048e+00,2.95
-1.5046e+00,2.97
-1.5045e+00,2.87
-1.5043e+00,2.83
-1.5042e+00,2.81
-1.5040e+00,2.75
-1.5038e+00,2.77
-1.5037e+00,2.87
-1.5035e+00,2.91
-1.5034e+00,2.95
-1.5032e+00,3.05
-1.5030e+00,3.09
-1.5029e+00,3.03
-1.5027e+00,3.05
-1.5026e+00,3.03
-1.5024e+00,2.95
-1.5022e+00,2.95
-1.5021e+00,2.93
-1.5019e+00,2.87
-1.5018e+00,2.81
-1.5016e+00,2.81
-1.5014e+00,2.75
-1.5013e+00,2.73
-1.5011e+00,2.75
-1.5010e+00,2.71
-1.5008e+00,2.61
-1.5006e+00,2.63
-1.5005e+00,2.59
-1.5003e+00,2.49
-1.5002e+00,2.43
-1.5000e+00,2.45
-1.4998e+00,2.37
-1.4997e+00,2.39
-1.4995e+00,2.39
-1.4994e+00,2.37
-1.4992e+00,2.47
-1.4990e+00,2.59
-1.4989e+00,2.59
-1.4987e+00,2.67
-1.4986e+00,2.67
-1.4984e+00,2.63
-1.4982e+00,2.59
-1.4981e+00,2.53
-1.4979e+00,2.37
-1.4978e+00,2.35
-1.4976e+00,2.35
-1.4974e+00,2.27
-1.4973e+00,2.25
-1.4971e+00,2.31
-1.4970e+00,2.27
-1.4968e+00,2.25
-1.4966e+00,2.27
-1.4965e+00,2.23
-1.4963e+00,2.23
-1.4962e+00,2.25
-1.4960e+00,2.13
-1.4958e+00,2.09
-1.4957e+00,2.11
-1.4955e+00,2.13
-1.4954e+00,2.15
-1.4952e+00,2.23
-1.4950e+00,2.23
-1.4949e+00,2.33
-1.4947e+00,2.47
-1.4946e+00,2.53
-1.4944e+00,2.67
-1.4942e+00,2.83
-1.4941e+00,2.87
-1.4939e+00,2.91
-1.4938e+00,2.87
-1.4936e+00,2.77
-1.4934e+00,2.63
-1.4933e+00,2.53
-1.4931e+00,2.41
-1.4930e+00,2.27
-1.4928e+00,2.15
-1.4926e+00,2.09
-1.4925e+00,2.05
-1.4923e+00,1.99
-1.4922e+00,2.05
-1.4920e+00,2.07
-1.4918e+00,2.13
-1.4917e+00,2.23
-1.4915e+00,2.41
-1.4914e+00,2.45
-1.4912e+00,2.61
-1.4910e+00,2.71
-1.4909e+00,2.79
-1.4907e+00,2.81
-1.4906e+00,2.83
-1.4904e+00,2.77
-1.4902e+00,2.81
-1.4901e+00,2.87
-1.4899e+00,2.83
-1.4898e+00,2.83
-1.4896e+00,2.89
-1.4894e+00,2.87
-1.4893e+00,2.85
-1.4891e+00,2.83
-1.4890e+00,2.75
-1.4888e+00,2.71
-1.4886e+00,2.69
-1.4885e+00,2.69
-1.4883e+00,2.61
-1.4882e+00,2.59
-1.4880e+00,2.59
-1.4878e+00,2.53
-1.4877e+00,2.51
-1.4875e+00,2.55
-1.4874e+00,2.51
-1.4872e+00,2.51
-1.4870e+00,2.55
-1.4869e+00,2.59
-1.4867e+00,2.53
-1.4866e+00,2.57
-1.4864e+00,2.59
-1.4862e+00,2.61
-1.4861e+00,2.63
-1.4859e+00,2.69
-1.4858e+00,2.71
-1.4856e+00,2.79
-1.4854e+00,2.89
-1.4853e+00,2.91
-1.4851e+00,2.87
-1.4850e+00,2.91
-1.4848e+00,2.89
-1.4846e+00,2.81
-1.4845e+00,2.81
-1.4843e+00,2.89
-1.4842e+00,2.93
-1.4840e+00,2.95
-1.4838e+00,3.07
-1.4837e+00,3.11
-1.4835e+00,3.09
-1.4834e+00,3.09
-1.4832e+00,3.11
-1.4830e+00,2.99
-1.4829e+00,2.95
-1.4827e+00,2.87
-1.4826e+00,2.69
-1.4824e+00,2.61
-1.4822e+00,2.61
-1.4821e+00,2.53
-1.4819e+00,2.55
-1.4818e+00,2.67
-1.4816e+00,2.79
-1.4814e+00,2.87
-1.4813e+00,2.99
-1.4811e+00,3.09
-1.4810e+00,3.07
-1.4808e+00,3.03
-1.4806e+00,2.99
-1.4805e+00,2.91
-1.4803e+00,2.73
-1.4802e+00,2.69
-1.4800e+00,2.67
-1.4798e+00,2.69
-1.4797e+00,2.69
-1.4795e+00,2.73
-1.4794e+00,2.67
-1.4792e+00,2.73
-1.4790e+00,2.79
-1.4789e+00,2.77
-1.4787e+00,2.79
-1.4786e+00,2.85
-1.4784e+00,2.83
-1.4782e+00,2.79
-1.4781e+00,2.77
-1.4779e+00,2.71
-1.4778e+00,2.65
-1.4776e+00,2.61
-1.4774e+00,2.57
-1.4773e+00,2.47
-1.4771e+00,2.41
-1.4770e+00,2.37
-1.4768e+00,2.29
-1.4766e+00,2.29
-1.4765e+00,2.35
-1.4763e+00,2.33
-1.4762e+00,2.35
-1.4760e+00,2.39
-1.4758e+00,2.41
-1.4757e+00,2.33
-1.4755e+00,2.37
-1.4754e+00,2.41
-1.4752e+00,2.39
-1.4750e+00,2.39
-1.4749e+00,2.41
-1.4747e+00,2.33
-1.4746e+00,2.39
-1.4744e+00,2.41
-1.4742e+00,2.33
-1.4741e+00,2.33
-1.4739e+00,2.37
-1.4738e+00,2.33
-1.4736e+00,2.33
-1.4734e+00,2.35
-1.4733e+00,2.33
-1.4731e+00,2.31
-1.4730e+00,2.35
-1.4728e+00,2.31
-1.4726e+00,2.23
-1.4725e+00,2.23
-1.4723e+00,2.23
-1.4722e+00,2.19
-1.4720e+00,2.21
-1.4718e+00,2.27
-1.4717e+00,2.27
-1.4715e+00,2.29
-1.4714e+00,2.37
-1.4712e+00,2.47
-1.4710e+00,2.45
-1.4709e+00,2.55
-1.4707e+00,2.61
-1.4706e+00,2.65
-1.4704e+00,2.65
-1.4702e+00,2.67
-1.4701e+00,2.57
-1.4699e+00,2.57
-1.4698e+00,2.51
-1.4696e+00,2.39
-1.4694e+00,2.33
-1.4693e+00,2.33
-1.4691e+00,2.29
-1.4690e+00,2.25
-1.4688e+00,2.27
-1.4686e+00,2.27
-1.4685e+00,2.29
-1.4683e+00,2.29
-1.4682e+00,2.35
-1.4680e+00,2.37
-1.4678e+00,2.35
-1.4677e+00,2.45
-1.4675e+00,2.53
-1.4674e+00,2.59
-1.4672e+00,2.73
-1.4670e+00,2.83
-1.4669e+00,2.89
-1.4667e+00,2.93
-1.4666e+00,3.03
-1.4664e+00,3.03
-1.4662e+00,3.03
-1.4661e+00,2.99
-1.4659e+00,2.97
-1.4658e+00,2.85
-1.4656e+00,2.75
-1.4654e+00,2.71
-1.4653e+00,2.59
-1.4651e+00,2.57
-1.4650e+00,2.57
-1.4648e+00,2.55
-1.4646e+00,2.53
-1.4645e+00,2.55
-1.4643e+00,2.53
-1.4642e+00,2.57
-1.4640e+00,2.65
-1.4638e+00,2.69
-1.4637e+00,2.65
-1.4635e+00,2.75
-1.4634e+00,2.81
-1.4632e+00,2.81
-1.4630e+00,2.83
-1.4629e+00,2.91
-1.4627e+00,2.85
-1.4626e+00,2.83
-1.4624e+00,2.81
-1.4622e+00,2.81
-1.4621e+00,2.79
-1.4619e+00,2.79
-1.4618e+00,2.85
-1.4616e+00,2.81
-1.4614e+00,2.79
-1.4613e+00,2.83
-1.4611e+00,2.85
-1.4610e+00,2.81
-1.4608e+00,2.87
-1.4606e+00,2.83
-1.4605e+00,2.77
-1.4603e+00,2.75
-1.4602e+00,2.79
-1.4600e+00,2.77
-1.4598e+00,2.73
-1.4597e+00,2.75
-1.4595e+00,2.73
-1.4594e+00,2.71
-1.4592e+00,2.65
-1.4590e+00,2.67
-1.4589e+00,2.63
-1.4587e+00,2.53
-1.4586e+00,2.51
-1.4584e+00,2.55
-1.4582e+00,2.47
-1.4581e+00,2.45
-1.4579e+00,2.39
-1.4578e+00,2.35
-1.4576e+00,2.21
-1.4574e+00,2.11
-1.4573e+00,2.03
-1.4571e+00,1.91
-1.4570e+00,1.87
-1.4568e+00,1.85
-1.4566e+00,1.81
-1.4565e+00,1.87
-1.4563e+00,1.97
-1.4562e+00,2.01
-1.4560e+00,2.09
-1.4558e+00,2.21
-1.4557e+00,2.27
-1.4555e+00,2.31
-1.4554e+00,2.43
-1.4552e+00,2.47
-1.4550e+00,2.51
-1.4549e+00,2.59
-1.4547e+00,2.65
-1.4546e+00,2.67
-1.4544e+00,2.79
-1.4542e+00,2.87
-1.4541e+00,2.89
-1.4539e+00,2.97
-1.4538e+00,3.07
-1.4536e+00,3.07
-1.4534e+00,3.05
-1.4533e+00,3.07
-1.4531e+00,3.01
-1.4530e+00,2.91
-1.4528e+00,2.81
-1.4526e+00,2.77
-1.4525e+00,2.65
-1.4523e+00,2.53
-1.4522e+00,2.45
-1.4520e+00,2.31
-1.4518e+00,2.07
-1.4517e+00,1.99
-1.4515e+00,1.89
-1.4514e+00,1.81
-1.4512e+00,1.79
-1.4510e+00,1.81
-1.4509e+00,1.75
-1.4507e+00,1.77
-1.4506e+00,1.79
-1.4504e+00,1.77
-1.4502e+00,1.77
-1.4501e+00,1.75
-1.4499e+00,1.79
-1.4498e+00,1.83
-1.4496e+00,1.91
-1.4494e+00,2.05
-1.4493e+00,2.13
-1.4491e+00,2.19
-1.4490e+00,2.35
-1.4488e+00,2.47
-1.4486e+00,2.55
-1.4485e+00,2.67
-1.4483e+00,2.87
-1.4482e+00,2.95
-1.4480e+00,2.99
-1.4478e+00,3.01
-1.4477e+00,3.05
-1.4475e+00,2.99
-1.4474e+00,2.93
-1.4472e+00,2.95
-1.4470e+00,2.87
-1.4469e+00,2.79
-1.4467e+00,2.79
-1.4466e+00,2.79
-1.4464e+00,2.73
-1.4462e+00,2.73
-1.4461e+00,2.73
-1.4459e+00,2.73
-1.4458e+00,2.71
-1.4456e+00,2.75
-1.4454e+00,2.75
-1.4453e+00,2.67
-1.4451e+00,2.67
-1.4450e+00,2.63
-1.4448e+00,2.57
-1.4446e+00,2.53
-1.4445e+00,2.55
-1.4443e+00,2.47
-1.4442e+00,2.43
-1.4440e+00,2.49
-1.4438e+00,2.61
-1.4437e+00,2.63
-1.4435e+00,2.71
-1.4434e+00,2.83
-1.4432e+00,2.93
-1.4430e+00,3.03
-1.4429e+00,3.19
-1.4427e+00,3.33
-1.4426e+00,3.37
-1.4424e+00,3.37
-1.4422e+00,3.31
-1.4421e+00,3.15
-1.4419e+00,2.95
-1.4418e+00,2.79
-1.4416e+00,2.67
-1.4414e+00,2.53
-1.4413e+00,2.45
-1.4411e+00,2.43
-1.4410e+00,2.37
-1.4408e+00,2.39
-1.4406e+00,2.45
-1.4405e+00,2.45
-1.4403e+00,2.39
-1.4402e+00,2.35
-1.4400e+00,2.29
-1.4398e+00,2.21
-1.4397e+00,2.13
-1.4395e+00,2.07
-1.4394e+00,2.03
-1.4392e+00,1.95
-1.4390e+00,1.93
-1.4389e+00,1.99
-1.4387e+00,2.03
-1.4386e+00,2.11
-1.4384e+00,2.25
-1.4382e+00,2.43
-1.4381e+00,2.51
-1.4379e+00,2.55
-1.4378e+00,2.63
-1.4376e+00,2.61
-1.4374e+00,2.55
-1.4373e+00,2.59
-1.4371e+00,2.57
-1.4370e+00,2.49
-1.4368e+00,2.45
-1.4366e+00,2.43
-1.4365e+00,2.33
-1.4363e+00,2.31
-1.4362e+00,2.29
-1.4360e+00,2.21
-1.4358e+00,2.19
-1.4357e+00,2.21
-1.4355e+00,2.19
-1.4354e+00,2.17
-1.4352e+00,2.23
-1.4350e+00,2.29
-1.4349e+00,2.29
-1.4347e+00,2.29
-1.4346e+00,2.39
-1.4344e+00,2.39
-1.4342e+00,2.35
-1.4341e+00,2.31
-1.4339e+00,2.31
-1.4338e+00,2.23
-1.4336e+00,2.17
-1.4334e+00,2.15
-1.4333e+00,2.13
-1.4331e+00,2.07
-1.4330e+00,2.05
-1.4328e+00,2.11
-1.4326e+00,2.05
-1.4325e+00,2.03
-1.4323e+00,2.01
-1.4322e+00,2.05
-1.4320e+00,1.99
-1.4318e+00,2.03
-1.4317e+00,2.13
-1.4315e+00,2.17
-1.4314e+00,2.17
-1.4312e+00,2.23
-1.4310e+00,2.27
-1.4309e+00,2.27
-1.4307e+00,2.29
-1.4306e+00,2.31
-1.4304e+00,2.31
-1.4302e+00,2.25
-1.4301e+00,2.25
-1.4299e+00,2.15
-1.4298e+00,2.13
-1.4296e+00,2.13
-1.4294e+00,2.13
-1.4293e+00,2.05
-1.4291e+00,2.09
-1.4290e+00,2.09
-1.4288e+00,2.05
-1.4286e+00,2.03
-1.4285e+00,2.11
-1.4283e+00,2.13
-1.4282e+00,2.15
-1.4280e+00,2.27
-1.4278e+00,2.45
-1.4277e+00,2.63
-1.4275e+00,2.75
-1.4274e+00,2.93
-1.4272e+00,2.99
-1.4270e+00,3.01
-1.4269e+00,3.09
-1.4267e+00,3.21
-1.4266e+00,3.23
-1.4264e+00,3.31
-1.4262e+00,3.33
-1.4261e+00,3.33
-1.4259e+00,3.31
-1.4258e+00,3.33
-1.4256e+00,3.31
-1.4254e+00,3.23
-1.4253e+00,3.23
-1.4251e+00,3.23
-1.4250e+00,3.19
-1.4248e+00,3.17
-1.4246e+00,3.21
-1.4245e+00,3.15
-1.4243e+00,3.11
-1.4242e+00,3.09
-1.4240e+00,3.03
-1.4238e+00,2.91
-1.4237e+00,2.87
-1.4235e+00,2.83
-1.4234e+00,2.83
-1.4232e+00,2.85
-1.4230e+00,2.91
-1.4229e+00,2.87
-1.4227e+00,2.93
-1.4226e+00,2.99
-1.4224e+00,2.97
-1.4222e+00,2.95
-1.4221e+00,2.97
-1.4219e+00,2.93
-1.4218e+00,2.87
-1.4216e+00,2.83
-1.4214e+00,2.83
-1.4213e+00,2.77
-1.4211e+00,2.71
-1.4210e+00,2.69
-1.4208e+00,2.63
-1.4206e+00,2.59
-1.4205e+00,2.61
-1.4203e+00,2.61
-1.4202e+00,2.61
-1.4200e+00,2.65
-1.4198e+00,2.65
-1.4197e+00,2.57
-1.4195e+00,2.53
-1.4194e+00,2.55
-1.4192e+00,2.51
-1.4190e+00,2.47
-1.4189e+00,2.45
-1.4187e+00,2.49
-1.4186e+00,2.53
-1.4184e+00,2.61
-1.4182e+00,2.73
-1.4181e+00,2.77
-1.4179e+00,2.77
-1.4178e+00,2.77
-1.4176e+00,2.81
-1.4174e+00,2.69
-1.4173e+00,2.65
-1.4171e+00,2.63
-1.4170e+00,2.57
-1.4168e+00,2.49
-1.4166e+00,2.47
-1.4165e+00,2.41
-1.4163e+00,2.39
-1.4162e+00,2.45
-1.4160e+00,2.43
-1.4158e+00,2.41
-1.4157e+00,2.51
-1.4155e+00,2.51
-1.4154e+00,2.49
-1.4152e+00,2.51
-1.4150e+00,2.47
-1.4149e+00,2.43
